aula-7/simulation/qsim/aula07.msim.vcd
$comment
	File created using the following command:
		vcd file aula07.msim.vcd -direction
$end
$date
	Thu Oct 13 12:02:19 2022
$end
$version
	ModelSim Version 2020.1
$end
$timescale
	1ps
$end

$scope module toplevel_vhd_vec_tst $end
$var wire 1 ! CLOCK_50 $end
$var wire 1 " KEY [3] $end
$var wire 1 # KEY [2] $end
$var wire 1 $ KEY [1] $end
$var wire 1 % KEY [0] $end
$var wire 1 & LEDR [9] $end
$var wire 1 ' LEDR [8] $end
$var wire 1 ( LEDR [7] $end
$var wire 1 ) LEDR [6] $end
$var wire 1 * LEDR [5] $end
$var wire 1 + LEDR [4] $end
$var wire 1 , LEDR [3] $end
$var wire 1 - LEDR [2] $end
$var wire 1 . LEDR [1] $end
$var wire 1 / LEDR [0] $end

$scope module i1 $end
$var wire 1 0 gnd $end
$var wire 1 1 vcc $end
$var wire 1 2 unknown $end
$var wire 1 3 devoe $end
$var wire 1 4 devclrn $end
$var wire 1 5 devpor $end
$var wire 1 6 ww_devoe $end
$var wire 1 7 ww_devclrn $end
$var wire 1 8 ww_devpor $end
$var wire 1 9 ww_CLOCK_50 $end
$var wire 1 : ww_LEDR [9] $end
$var wire 1 ; ww_LEDR [8] $end
$var wire 1 < ww_LEDR [7] $end
$var wire 1 = ww_LEDR [6] $end
$var wire 1 > ww_LEDR [5] $end
$var wire 1 ? ww_LEDR [4] $end
$var wire 1 @ ww_LEDR [3] $end
$var wire 1 A ww_LEDR [2] $end
$var wire 1 B ww_LEDR [1] $end
$var wire 1 C ww_LEDR [0] $end
$var wire 1 D ww_KEY [3] $end
$var wire 1 E ww_KEY [2] $end
$var wire 1 F ww_KEY [1] $end
$var wire 1 G ww_KEY [0] $end
$var wire 1 H \CLOCK_50~input_o\ $end
$var wire 1 I \KEY[1]~input_o\ $end
$var wire 1 J \KEY[2]~input_o\ $end
$var wire 1 K \KEY[3]~input_o\ $end
$var wire 1 L \LEDR[0]~output_o\ $end
$var wire 1 M \LEDR[1]~output_o\ $end
$var wire 1 N \LEDR[2]~output_o\ $end
$var wire 1 O \LEDR[3]~output_o\ $end
$var wire 1 P \LEDR[4]~output_o\ $end
$var wire 1 Q \LEDR[5]~output_o\ $end
$var wire 1 R \LEDR[6]~output_o\ $end
$var wire 1 S \LEDR[7]~output_o\ $end
$var wire 1 T \LEDR[8]~output_o\ $end
$var wire 1 U \LEDR[9]~output_o\ $end
$var wire 1 V \KEY[0]~input_o\ $end
$var wire 1 W \CPU|incrementaPC|Add0~1_sumout\ $end
$var wire 1 X \CPU|incrementaPC|Add0~18\ $end
$var wire 1 Y \CPU|incrementaPC|Add0~21_sumout\ $end
$var wire 1 Z \ROM|memROM~11_combout\ $end
$var wire 1 [ \ROM|memROM~9_combout\ $end
$var wire 1 \ \ROM|memROM~7_combout\ $end
$var wire 1 ] \ROM|memROM~8_combout\ $end
$var wire 1 ^ \CPU|DECODER1|Equal10~2_combout\ $end
$var wire 1 _ \CPU|incrementaPC|Add0~22\ $end
$var wire 1 ` \CPU|incrementaPC|Add0~25_sumout\ $end
$var wire 1 a \ROM|memROM~10_combout\ $end
$var wire 1 b \CPU|incrementaPC|Add0~26\ $end
$var wire 1 c \CPU|incrementaPC|Add0~29_sumout\ $end
$var wire 1 d \ROM|memROM~1_combout\ $end
$var wire 1 e \CPU|incrementaPC|Add0~30\ $end
$var wire 1 f \CPU|incrementaPC|Add0~33_sumout\ $end
$var wire 1 g \ROM|memROM~6_combout\ $end
$var wire 1 h \ROM|memROM~3_combout\ $end
$var wire 1 i \ROM|memROM~4_combout\ $end
$var wire 1 j \CPU|incrementaPC|Add0~2\ $end
$var wire 1 k \CPU|incrementaPC|Add0~5_sumout\ $end
$var wire 1 l \ROM|memROM~0_combout\ $end
$var wire 1 m \ROM|memROM~2_combout\ $end
$var wire 1 n \CPU|incrementaPC|Add0~6\ $end
$var wire 1 o \CPU|incrementaPC|Add0~9_sumout\ $end
$var wire 1 p \CPU|incrementaPC|Add0~10\ $end
$var wire 1 q \CPU|incrementaPC|Add0~13_sumout\ $end
$var wire 1 r \ROM|memROM~12_combout\ $end
$var wire 1 s \CPU|incrementaPC|Add0~14\ $end
$var wire 1 t \CPU|incrementaPC|Add0~17_sumout\ $end
$var wire 1 u \ROM|memROM~5_combout\ $end
$var wire 1 v \RAM64|process_0~0_combout\ $end
$var wire 1 w \CPU|DECODER1|Equal10~0_combout\ $end
$var wire 1 x \ROM|memROM~13_combout\ $end
$var wire 1 y \RAM64|process_0~2_combout\ $end
$var wire 1 z \RAM64|process_0~1_combout\ $end
$var wire 1 { \RAM64|ram~557_combout\ $end
$var wire 1 | \RAM64|ram~23_q\ $end
$var wire 1 } \RAM64|ram~527_combout\ $end
$var wire 1 ~ \RAM64|ram~558_combout\ $end
$var wire 1 !! \RAM64|ram~15_q\ $end
$var wire 1 "! \RAM64|ram~528_combout\ $end
$var wire 1 #! \RAM64|ram~529_combout\ $end
$var wire 1 $! \RAM64|ram~530_combout\ $end
$var wire 1 %! \CPU|ULA1|Add0~1_sumout\ $end
$var wire 1 &! \CPU|ULA1|Add1~34_cout\ $end
$var wire 1 '! \CPU|ULA1|Add1~1_sumout\ $end
$var wire 1 (! \CPU|DECODER1|saida[4]~0_combout\ $end
$var wire 1 )! \CPU|ULA1|saida[0]~0_combout\ $end
$var wire 1 *! \CPU|DECODER1|Equal10~1_combout\ $end
$var wire 1 +! \CPU|DECODER1|saida~1_combout\ $end
$var wire 1 ,! \AND_LEDR07|saida~0_combout\ $end
$var wire 1 -! \ROM|memROM~14_combout\ $end
$var wire 1 .! \RAM64|ram~24_q\ $end
$var wire 1 /! \RAM64|ram~531_combout\ $end
$var wire 1 0! \RAM64|ram~16_q\ $end
$var wire 1 1! \RAM64|ram~532_combout\ $end
$var wire 1 2! \RAM64|ram~533_combout\ $end
$var wire 1 3! \RAM64|ram~534_combout\ $end
$var wire 1 4! \CPU|ULA1|Add0~2\ $end
$var wire 1 5! \CPU|ULA1|Add0~5_sumout\ $end
$var wire 1 6! \CPU|ULA1|Add1~2\ $end
$var wire 1 7! \CPU|ULA1|Add1~5_sumout\ $end
$var wire 1 8! \CPU|ULA1|saida[1]~1_combout\ $end
$var wire 1 9! \RAM64|ram~25_q\ $end
$var wire 1 :! \RAM64|ram~535_combout\ $end
$var wire 1 ;! \RAM64|ram~17_q\ $end
$var wire 1 <! \RAM64|ram~536_combout\ $end
$var wire 1 =! \RAM64|ram~537_combout\ $end
$var wire 1 >! \CPU|ULA1|Add0~6\ $end
$var wire 1 ?! \CPU|ULA1|Add0~9_sumout\ $end
$var wire 1 @! \RAM64|ram~538_combout\ $end
$var wire 1 A! \CPU|ULA1|Add1~6\ $end
$var wire 1 B! \CPU|ULA1|Add1~9_sumout\ $end
$var wire 1 C! \CPU|ULA1|saida[2]~2_combout\ $end
$var wire 1 D! \RAM64|ram~26_q\ $end
$var wire 1 E! \RAM64|ram~539_combout\ $end
$var wire 1 F! \RAM64|ram~18_q\ $end
$var wire 1 G! \RAM64|ram~540_combout\ $end
$var wire 1 H! \RAM64|ram~541_combout\ $end
$var wire 1 I! \RAM64|ram~542_combout\ $end
$var wire 1 J! \CPU|ULA1|Add0~10\ $end
$var wire 1 K! \CPU|ULA1|Add0~13_sumout\ $end
$var wire 1 L! \CPU|ULA1|Add1~10\ $end
$var wire 1 M! \CPU|ULA1|Add1~13_sumout\ $end
$var wire 1 N! \CPU|ULA1|saida[3]~3_combout\ $end
$var wire 1 O! \RAM64|ram~27_q\ $end
$var wire 1 P! \RAM64|ram~543_combout\ $end
$var wire 1 Q! \RAM64|ram~19_q\ $end
$var wire 1 R! \RAM64|ram~544_combout\ $end
$var wire 1 S! \RAM64|ram~545_combout\ $end
$var wire 1 T! \CPU|ULA1|Add0~14\ $end
$var wire 1 U! \CPU|ULA1|Add0~17_sumout\ $end
$var wire 1 V! \CPU|ULA1|Add1~14\ $end
$var wire 1 W! \CPU|ULA1|Add1~17_sumout\ $end
$var wire 1 X! \CPU|ULA1|saida[4]~4_combout\ $end
$var wire 1 Y! \RAM64|ram~28_q\ $end
$var wire 1 Z! \RAM64|ram~546_combout\ $end
$var wire 1 [! \RAM64|ram~20_q\ $end
$var wire 1 \! \RAM64|ram~547_combout\ $end
$var wire 1 ]! \RAM64|ram~548_combout\ $end
$var wire 1 ^! \RAM64|ram~549_combout\ $end
$var wire 1 _! \CPU|ULA1|Add0~18\ $end
$var wire 1 `! \CPU|ULA1|Add0~21_sumout\ $end
$var wire 1 a! \CPU|ULA1|Add1~18\ $end
$var wire 1 b! \CPU|ULA1|Add1~21_sumout\ $end
$var wire 1 c! \CPU|ULA1|saida[5]~5_combout\ $end
$var wire 1 d! \RAM64|ram~29_q\ $end
$var wire 1 e! \RAM64|ram~550_combout\ $end
$var wire 1 f! \RAM64|ram~21_q\ $end
$var wire 1 g! \RAM64|ram~551_combout\ $end
$var wire 1 h! \RAM64|ram~552_combout\ $end
$var wire 1 i! \CPU|ULA1|Add0~22\ $end
$var wire 1 j! \CPU|ULA1|Add0~25_sumout\ $end
$var wire 1 k! \CPU|ULA1|Add1~22\ $end
$var wire 1 l! \CPU|ULA1|Add1~25_sumout\ $end
$var wire 1 m! \CPU|ULA1|saida[6]~6_combout\ $end
$var wire 1 n! \RAM64|ram~30_q\ $end
$var wire 1 o! \RAM64|ram~553_combout\ $end
$var wire 1 p! \RAM64|ram~22_q\ $end
$var wire 1 q! \RAM64|ram~554_combout\ $end
$var wire 1 r! \RAM64|ram~555_combout\ $end
$var wire 1 s! \RAM64|ram~556_combout\ $end
$var wire 1 t! \CPU|ULA1|Add0~26\ $end
$var wire 1 u! \CPU|ULA1|Add0~29_sumout\ $end
$var wire 1 v! \CPU|ULA1|Add1~26\ $end
$var wire 1 w! \CPU|ULA1|Add1~29_sumout\ $end
$var wire 1 x! \CPU|ULA1|saida[7]~7_combout\ $end
$var wire 1 y! \AND_LEDR8|saida~0_combout\ $end
$var wire 1 z! \FLIP_FLOP_LED8|DOUT~0_combout\ $end
$var wire 1 {! \FLIP_FLOP_LED8|DOUT~q\ $end
$var wire 1 |! \AND_LEDR07|saida~1_combout\ $end
$var wire 1 }! \FLIP_FLOP_LED9|DOUT~0_combout\ $end
$var wire 1 ~! \FLIP_FLOP_LED9|DOUT~q\ $end
$var wire 1 !" \CPU|REGA|DOUT\ [7] $end
$var wire 1 "" \CPU|REGA|DOUT\ [6] $end
$var wire 1 #" \CPU|REGA|DOUT\ [5] $end
$var wire 1 $" \CPU|REGA|DOUT\ [4] $end
$var wire 1 %" \CPU|REGA|DOUT\ [3] $end
$var wire 1 &" \CPU|REGA|DOUT\ [2] $end
$var wire 1 '" \CPU|REGA|DOUT\ [1] $end
$var wire 1 (" \CPU|REGA|DOUT\ [0] $end
$var wire 1 )" \CPU|PC|DOUT\ [8] $end
$var wire 1 *" \CPU|PC|DOUT\ [7] $end
$var wire 1 +" \CPU|PC|DOUT\ [6] $end
$var wire 1 ," \CPU|PC|DOUT\ [5] $end
$var wire 1 -" \CPU|PC|DOUT\ [4] $end
$var wire 1 ." \CPU|PC|DOUT\ [3] $end
$var wire 1 /" \CPU|PC|DOUT\ [2] $end
$var wire 1 0" \CPU|PC|DOUT\ [1] $end
$var wire 1 1" \CPU|PC|DOUT\ [0] $end
$var wire 1 2" \REG_LEDR07|DOUT\ [7] $end
$var wire 1 3" \REG_LEDR07|DOUT\ [6] $end
$var wire 1 4" \REG_LEDR07|DOUT\ [5] $end
$var wire 1 5" \REG_LEDR07|DOUT\ [4] $end
$var wire 1 6" \REG_LEDR07|DOUT\ [3] $end
$var wire 1 7" \REG_LEDR07|DOUT\ [2] $end
$var wire 1 8" \REG_LEDR07|DOUT\ [1] $end
$var wire 1 9" \REG_LEDR07|DOUT\ [0] $end
$var wire 1 :" \RAM64|ALT_INV_process_0~2_combout\ $end
$var wire 1 ;" \ROM|ALT_INV_memROM~14_combout\ $end
$var wire 1 <" \RAM64|ALT_INV_process_0~1_combout\ $end
$var wire 1 =" \ROM|ALT_INV_memROM~13_combout\ $end
$var wire 1 >" \RAM64|ALT_INV_ram~556_combout\ $end
$var wire 1 ?" \RAM64|ALT_INV_ram~555_combout\ $end
$var wire 1 @" \RAM64|ALT_INV_ram~554_combout\ $end
$var wire 1 A" \RAM64|ALT_INV_ram~22_q\ $end
$var wire 1 B" \RAM64|ALT_INV_ram~553_combout\ $end
$var wire 1 C" \RAM64|ALT_INV_ram~30_q\ $end
$var wire 1 D" \RAM64|ALT_INV_ram~552_combout\ $end
$var wire 1 E" \RAM64|ALT_INV_ram~551_combout\ $end
$var wire 1 F" \RAM64|ALT_INV_ram~21_q\ $end
$var wire 1 G" \RAM64|ALT_INV_ram~550_combout\ $end
$var wire 1 H" \RAM64|ALT_INV_ram~29_q\ $end
$var wire 1 I" \RAM64|ALT_INV_ram~549_combout\ $end
$var wire 1 J" \RAM64|ALT_INV_ram~548_combout\ $end
$var wire 1 K" \RAM64|ALT_INV_ram~547_combout\ $end
$var wire 1 L" \RAM64|ALT_INV_ram~20_q\ $end
$var wire 1 M" \RAM64|ALT_INV_ram~546_combout\ $end
$var wire 1 N" \RAM64|ALT_INV_ram~28_q\ $end
$var wire 1 O" \RAM64|ALT_INV_ram~545_combout\ $end
$var wire 1 P" \RAM64|ALT_INV_ram~544_combout\ $end
$var wire 1 Q" \RAM64|ALT_INV_ram~19_q\ $end
$var wire 1 R" \RAM64|ALT_INV_ram~543_combout\ $end
$var wire 1 S" \RAM64|ALT_INV_ram~27_q\ $end
$var wire 1 T" \RAM64|ALT_INV_ram~542_combout\ $end
$var wire 1 U" \RAM64|ALT_INV_ram~541_combout\ $end
$var wire 1 V" \RAM64|ALT_INV_ram~540_combout\ $end
$var wire 1 W" \RAM64|ALT_INV_ram~18_q\ $end
$var wire 1 X" \RAM64|ALT_INV_ram~539_combout\ $end
$var wire 1 Y" \RAM64|ALT_INV_ram~26_q\ $end
$var wire 1 Z" \RAM64|ALT_INV_ram~538_combout\ $end
$var wire 1 [" \RAM64|ALT_INV_ram~537_combout\ $end
$var wire 1 \" \RAM64|ALT_INV_ram~536_combout\ $end
$var wire 1 ]" \RAM64|ALT_INV_ram~17_q\ $end
$var wire 1 ^" \RAM64|ALT_INV_ram~535_combout\ $end
$var wire 1 _" \RAM64|ALT_INV_ram~25_q\ $end
$var wire 1 `" \RAM64|ALT_INV_ram~534_combout\ $end
$var wire 1 a" \RAM64|ALT_INV_ram~533_combout\ $end
$var wire 1 b" \RAM64|ALT_INV_ram~532_combout\ $end
$var wire 1 c" \RAM64|ALT_INV_ram~16_q\ $end
$var wire 1 d" \RAM64|ALT_INV_ram~531_combout\ $end
$var wire 1 e" \RAM64|ALT_INV_ram~24_q\ $end
$var wire 1 f" \CPU|DECODER1|ALT_INV_saida[4]~0_combout\ $end
$var wire 1 g" \RAM64|ALT_INV_ram~530_combout\ $end
$var wire 1 h" \RAM64|ALT_INV_ram~529_combout\ $end
$var wire 1 i" \RAM64|ALT_INV_ram~528_combout\ $end
$var wire 1 j" \RAM64|ALT_INV_ram~15_q\ $end
$var wire 1 k" \RAM64|ALT_INV_ram~527_combout\ $end
$var wire 1 l" \RAM64|ALT_INV_ram~23_q\ $end
$var wire 1 m" \ROM|ALT_INV_memROM~12_combout\ $end
$var wire 1 n" \ROM|ALT_INV_memROM~11_combout\ $end
$var wire 1 o" \ROM|ALT_INV_memROM~10_combout\ $end
$var wire 1 p" \CPU|DECODER1|ALT_INV_Equal10~0_combout\ $end
$var wire 1 q" \AND_LEDR07|ALT_INV_saida~1_combout\ $end
$var wire 1 r" \AND_LEDR8|ALT_INV_saida~0_combout\ $end
$var wire 1 s" \ROM|ALT_INV_memROM~9_combout\ $end
$var wire 1 t" \RAM64|ALT_INV_process_0~0_combout\ $end
$var wire 1 u" \ROM|ALT_INV_memROM~8_combout\ $end
$var wire 1 v" \ROM|ALT_INV_memROM~7_combout\ $end
$var wire 1 w" \ROM|ALT_INV_memROM~6_combout\ $end
$var wire 1 x" \ROM|ALT_INV_memROM~5_combout\ $end
$var wire 1 y" \ROM|ALT_INV_memROM~4_combout\ $end
$var wire 1 z" \ROM|ALT_INV_memROM~3_combout\ $end
$var wire 1 {" \ROM|ALT_INV_memROM~2_combout\ $end
$var wire 1 |" \ROM|ALT_INV_memROM~1_combout\ $end
$var wire 1 }" \ROM|ALT_INV_memROM~0_combout\ $end
$var wire 1 ~" \FLIP_FLOP_LED9|ALT_INV_DOUT~q\ $end
$var wire 1 !# \FLIP_FLOP_LED8|ALT_INV_DOUT~q\ $end
$var wire 1 "# \CPU|ULA1|ALT_INV_Add1~29_sumout\ $end
$var wire 1 ## \CPU|ULA1|ALT_INV_Add1~25_sumout\ $end
$var wire 1 $# \CPU|ULA1|ALT_INV_Add1~21_sumout\ $end
$var wire 1 %# \CPU|ULA1|ALT_INV_Add1~17_sumout\ $end
$var wire 1 &# \CPU|ULA1|ALT_INV_Add1~13_sumout\ $end
$var wire 1 '# \CPU|ULA1|ALT_INV_Add1~9_sumout\ $end
$var wire 1 (# \CPU|ULA1|ALT_INV_Add1~5_sumout\ $end
$var wire 1 )# \CPU|ULA1|ALT_INV_Add1~1_sumout\ $end
$var wire 1 *# \CPU|REGA|ALT_INV_DOUT\ [7] $end
$var wire 1 +# \CPU|REGA|ALT_INV_DOUT\ [6] $end
$var wire 1 ,# \CPU|REGA|ALT_INV_DOUT\ [5] $end
$var wire 1 -# \CPU|REGA|ALT_INV_DOUT\ [4] $end
$var wire 1 .# \CPU|REGA|ALT_INV_DOUT\ [3] $end
$var wire 1 /# \CPU|REGA|ALT_INV_DOUT\ [2] $end
$var wire 1 0# \CPU|REGA|ALT_INV_DOUT\ [1] $end
$var wire 1 1# \CPU|REGA|ALT_INV_DOUT\ [0] $end
$var wire 1 2# \CPU|PC|ALT_INV_DOUT\ [8] $end
$var wire 1 3# \CPU|PC|ALT_INV_DOUT\ [7] $end
$var wire 1 4# \CPU|PC|ALT_INV_DOUT\ [6] $end
$var wire 1 5# \CPU|PC|ALT_INV_DOUT\ [5] $end
$var wire 1 6# \CPU|PC|ALT_INV_DOUT\ [4] $end
$var wire 1 7# \CPU|PC|ALT_INV_DOUT\ [3] $end
$var wire 1 8# \CPU|PC|ALT_INV_DOUT\ [2] $end
$var wire 1 9# \CPU|PC|ALT_INV_DOUT\ [1] $end
$var wire 1 :# \CPU|PC|ALT_INV_DOUT\ [0] $end
$upscope $end
$upscope $end
$enddefinitions $end
#0
$dumpvars
x!
00
11
x2
13
14
15
16
17
18
x9
xH
xI
xJ
xK
0L
0M
0N
0O
0P
0Q
0R
0S
0T
0U
1V
1W
0X
0Y
0Z
0[
0\
0]
0^
0_
0`
0a
0b
0c
1d
0e
0f
0g
1h
1i
0j
0k
0l
0m
0n
0o
0p
0q
0r
0s
0t
1u
1v
1w
0x
0y
0z
0{
0|
0}
0~
0!!
0"!
0#!
0$!
1%!
1&!
1'!
1(!
1)!
1*!
1+!
0,!
0-!
0.!
0/!
00!
01!
02!
03!
04!
05!
06!
17!
08!
09!
0:!
0;!
0<!
0=!
0>!
0?!
0@!
0A!
1B!
0C!
0D!
0E!
0F!
0G!
0H!
0I!
0J!
0K!
0L!
1M!
0N!
0O!
0P!
0Q!
0R!
0S!
0T!
0U!
0V!
1W!
0X!
0Y!
0Z!
0[!
0\!
0]!
0^!
0_!
0`!
0a!
1b!
0c!
0d!
0e!
0f!
0g!
0h!
0i!
0j!
0k!
1l!
0m!
0n!
0o!
0p!
0q!
0r!
0s!
0t!
0u!
0v!
1w!
0x!
1y!
0z!
0{!
0|!
0}!
0~!
1:"
1;"
1<"
1="
1>"
1?"
1@"
1A"
1B"
1C"
1D"
1E"
1F"
1G"
1H"
1I"
1J"
1K"
1L"
1M"
1N"
1O"
1P"
1Q"
1R"
1S"
1T"
1U"
1V"
1W"
1X"
1Y"
1Z"
1["
1\"
1]"
1^"
1_"
1`"
1a"
1b"
1c"
1d"
1e"
0f"
1g"
1h"
1i"
1j"
1k"
1l"
1m"
1n"
1o"
0p"
1q"
0r"
1s"
0t"
1u"
1v"
1w"
0x"
0y"
0z"
1{"
0|"
1}"
1~"
1!#
0"#
0##
0$#
0%#
0&#
0'#
0(#
0)#
x"
x#
x$
1%
0:
0;
0<
0=
0>
0?
0@
0A
0B
0C
xD
xE
xF
1G
0!"
0""
0#"
0$"
0%"
0&"
0'"
0("
0)"
0*"
0+"
0,"
0-"
0."
0/"
00"
01"
02"
03"
04"
05"
06"
07"
08"
09"
1*#
1+#
1,#
1-#
1.#
1/#
10#
11#
12#
13#
14#
15#
16#
17#
18#
19#
1:#
0&
0'
0(
0)
0*
0+
0,
0-
0.
0/
$end
#10000
0%
0G
0V
#20000
1%
1G
1V
11"
1("
01#
0:#
0W
1j
1[
0h
1y
0%!
14!
0'!
16!
1)#
0:"
1z"
0s"
07!
1A!
15!
1k
0w
0(!
0+!
0i
1x
0y!
1z
1(#
0B!
1L!
0<"
1r"
0="
1y"
1f"
1p"
1'#
1C!
1N!
1X!
1c!
1m!
1x!
0)!
1%!
04!
1'!
1~
0M!
1V!
0C!
1&#
0)#
0W!
1a!
05!
1)!
0N!
1%#
0b!
1k!
0X!
1$#
0l!
1v!
0c!
1##
0w!
0m!
1"#
0x!
#30000
0%
0G
0V
#40000
1%
1G
1V
01"
10"
1!!
0j"
09#
1:#
1W
0j
0[
1\
1]
0k
1n
0y
1"!
0i"
1:"
0u"
0v"
1s"
1o
1k
0n
1w
0v
0*!
1+!
0z
1#!
0o
0h"
1<"
1t"
0p"
0w
0~
1$!
0g"
1p"
0%!
14!
0'!
1)#
15!
0)!
#50000
0%
0G
0V
#60000
1%
1G
1V
11"
0("
1'"
00#
11#
0:#
0W
1j
1[
0\
0]
1h
1y
1%!
04!
1'!
06!
05!
1>!
17!
0(#
0)#
0:"
0z"
1u"
1v"
0s"
1?!
07!
15!
0>!
0k
1n
1v
1*!
0+!
1i
0x
1y!
1)!
18!
1(#
1o
0?!
0r"
1="
0y"
0t"
08!
1z
0#!
1h"
0<"
1{
0$!
1g"
0%!
0'!
16!
1)#
17!
0)!
0(#
18!
#70000
0%
0G
0V
#80000
1%
1G
1V
01"
00"
1/"
1.!
0e"
08#
19#
1:#
1W
0j
1k
0n
1]
0h
0o
1p
1/!
0d"
1z"
0u"
1q
1o
0p
0k
0v
1(!
1+!
0i
1x
0y!
12!
0q
0a"
1r"
0="
1y"
0f"
1t"
0z
08!
0{
1~
1#!
02!
13!
0`"
1a"
0h"
1<"
0~
1$!
03!
05!
1>!
07!
18!
1(#
1`"
0g"
1?!
1%!
1'!
06!
1)!
15!
0>!
17!
08!
0(#
0)#
0?!
07!
1(#
#90000
0%
0G
0V
#100000
1%
1G
1V
11"
1("
0'"
10#
01#
0:#
0W
1j
0]
1g
1h
0%!
14!
0'!
16!
05!
17!
0A!
0(#
1)#
0z"
0w"
1u"
1B!
0L!
07!
1A!
15!
1k
1v
0(!
0+!
1i
0x
1y!
1(#
0'#
0B!
1L!
1M!
0V!
0r"
1="
0y"
1f"
0t"
0&#
1'#
1C!
0#!
0)!
12!
1z!
1W!
0a!
0M!
1V!
0C!
1N!
1&#
0%#
0a"
1h"
0W!
1a!
1b!
0k!
0$!
13!
1X!
0N!
0$#
1%#
1l!
0v!
0b!
1k!
0`"
1g"
0X!
1c!
1$#
0##
1%!
04!
1'!
05!
1>!
17!
0A!
0l!
1v!
1w!
1m!
0c!
0"#
1##
0(#
0)#
0w!
1B!
0L!
1?!
15!
0>!
1)!
18!
0m!
1x!
0'#
1"#
0?!
1M!
0V!
0x!
1C!
0&#
1W!
0a!
1N!
0%#
1b!
0k!
1X!
0$#
1l!
0v!
1c!
0##
1w!
1m!
0"#
1x!
#110000
0%
0G
0V
#120000
1%
1G
1V
01"
10"
1{!
0!#
09#
1:#
1W
0j
0h
0k
1n
1l
0}"
1z"
1T
0o
1p
1k
0n
0i
1x
1m
1-!
0y!
1;
1o
0p
1q
1r"
0;"
0{"
0="
1y"
1'
1#!
02!
1|!
0"!
0/!
0q
1d"
1i"
0q"
1a"
0h"
1$!
03!
1}!
0#!
1h"
1`"
0g"
0%!
14!
0'!
05!
07!
1A!
0$!
1g"
1(#
1)#
0B!
1L!
15!
08!
1%!
04!
1'!
0)!
1'#
0M!
1V!
0)#
0C!
05!
1&#
1)!
0W!
1a!
0N!
1%#
0b!
1k!
0X!
1$#
0l!
1v!
0c!
1##
0w!
0m!
1"#
0x!
#130000
0%
0G
0V
#140000
1%
1G
1V
11"
1~!
0~"
0:#
0W
1j
0[
1a
0g
1h
0l
0y
1:"
1}"
0z"
1w"
0o"
1s"
1U
0k
1n
1w
1(!
1+!
1i
0x
0m
0-!
1y!
0|!
1:
0o
1p
1q"
0r"
1;"
1{"
1="
0y"
0f"
0p"
1&
1?!
1B!
0L!
1U!
1W!
0a!
1j!
1l!
0v!
1C!
1X!
1m!
0%!
14!
0'!
1"!
1/!
1q
0d"
0i"
1)#
0##
0%#
0'#
15!
1w!
1b!
0k!
1M!
0V!
12!
0&#
0$#
0"#
0W!
0l!
0a"
1##
1%#
#150000
0%
0G
0V
#160000
1%
1G
1V
01"
00"
0/"
1."
1&"
1$"
1""
0+#
0-#
0/#
07#
18#
19#
1:#
1W
0j
1k
0n
1o
0p
1[
0a
1g
0h
0q
1s
1y
0?!
1J!
0B!
1L!
0U!
1_!
1W!
0j!
1t!
1l!
0##
0%#
1'#
0:"
1z"
0w"
1o"
0s"
1u!
1`!
0M!
1V!
1K!
1t
1q
0s
0o
0k
0w
0(!
0+!
13!
1?!
0J!
1B!
1U!
0_!
0W!
1a!
1j!
0t!
0l!
1v!
0i
1x
0y!
0C!
0X!
0m!
1&#
0t
1W!
1r"
0="
1y"
1##
1%#
0'#
0`"
1f"
1p"
0w!
0u!
0b!
1k!
0`!
0K!
0%#
1c!
1x!
05!
1>!
17!
0A!
1C!
1#!
0)!
1,!
02!
1|!
1%!
04!
1'!
1$#
1"#
1X!
1l!
0)#
0q"
1a"
0h"
0(#
0x!
0c!
15!
0>!
0B!
0?!
1J!
0##
18!
1$!
03!
1)!
1'#
1m!
1K!
1?!
0J!
1`"
0g"
0C!
0%!
14!
0'!
05!
07!
1A!
0K!
1(#
1)#
1B!
15!
0)!
08!
0'#
1C!
#170000
0%
0G
0V
#180000
1%
1G
1V
11"
19"
17"
15"
13"
0:#
0W
1j
1Z
0[
0g
1l
1r
0y
1:"
0m"
0}"
1w"
1s"
0n"
1R
1P
1N
1L
1k
0#!
1w
1(!
1+!
1m
1-!
0"!
0/!
0,!
0|!
1=
1?
1A
1C
1q"
1d"
1i"
0;"
0{"
0f"
0p"
1h"
1/
1-
1+
1)
0$!
1%!
04!
1'!
1K!
1M!
0V!
1`!
1b!
0k!
1u!
1w!
0C!
1N!
0X!
1c!
0m!
1x!
18!
05!
1>!
17!
0A!
0(#
0"#
0$#
0&#
0)#
1g"
0B!
0?!
1J!
0l!
0W!
15!
0>!
1%#
1##
1'#
1?!
0J!
0K!
1T!
0U!
1_!
1K!
0T!
1U!
0_!
0`!
1i!
0j!
1t!
1`!
0i!
1j!
0t!
0u!
1u!
#190000
0%
0G
0V
#200000
1%
1G
1V
01"
10"
0("
1'"
0&"
1%"
0$"
1#"
0""
1!"
0*#
1+#
0,#
1-#
0.#
1/#
00#
11#
09#
1:#
1W
0j
0r
0Z
1[
1g
0k
1n
0l
1y
0%!
0'!
05!
1>!
07!
1A!
0?!
1B!
0L!
0K!
1T!
0M!
1V!
0U!
1W!
0a!
0`!
1i!
0b!
1k!
0j!
1l!
0v!
0u!
0w!
1"#
0##
1$#
0%#
1&#
0'#
1(#
1)#
0:"
1}"
0w"
0s"
1n"
1m"
1w!
0l!
1v!
1j!
1b!
0k!
0W!
1a!
1U!
1M!
0V!
0B!
1L!
1?!
1o
1k
0n
1K!
0T!
0M!
1V!
1`!
0i!
0b!
1k!
1u!
0w!
0w
0(!
0+!
0m
0-!
1|!
0N!
0c!
0x!
1'#
0&#
1%#
0$#
1##
0"#
0o
1M!
1W!
0a!
1b!
1l!
0v!
1w!
0q"
1;"
1{"
1f"
1p"
1"#
1$#
1&#
0l!
1v!
0j!
0W!
1a!
0U!
0"#
0##
0$#
0%#
0&#
1"!
1,!
1/!
08!
15!
0>!
17!
0w!
0b!
1%#
1##
1N!
1X!
1c!
1m!
1x!
1b!
1w!
1$#
1"#
0(#
0d"
0i"
0m!
0X!
0?!
0"#
0$#
1#!
18!
0x!
0c!
1c!
1x!
0h"
1$!
0g"
1%!
1'!
06!
0)#
07!
1)!
1(#
08!
#210000
0%
0G
0V
#220000
1%
1G
1V
11"
09"
18"
07"
16"
05"
14"
03"
12"
0:#
0W
1j
0[
1\
0g
1h
1l
1r
0y
1:"
0m"
0}"
0z"
1w"
0v"
1s"
1S
0R
1Q
0P
1O
0N
1M
0L
0k
1n
1w
1^
0v
1i
0x
1m
1-!
0"!
0/!
0,!
0|!
1<
0=
1>
0?
1@
0A
1B
0C
1o
1q"
1d"
1i"
0;"
0{"
1="
0y"
1t"
0p"
0/
1.
0-
1,
0+
1*
0)
1(
0K!
1T!
0M!
0w
05!
1>!
17!
0A!
0#!
1h"
0(#
1p"
1&#
1B!
0L!
1?!
1U!
15!
0>!
07!
1A!
1K!
0T!
1M!
0N!
18!
0$!
0'#
0M!
1g"
0&#
1(#
1C!
0U!
0B!
1L!
0?!
1&#
08!
1N!
0%!
0'!
16!
1'#
0N!
1M!
1)#
0C!
17!
0&#
0)!
0(#
1N!
18!
#230000
0%
0G
0V
#240000
1%
1G
1V
#250000
0%
0G
0V
#260000
1%
1G
1V
#270000
0%
0G
0V
#280000
1%
1G
1V
#290000
0%
0G
0V
