aula-4/simulation/qsim/aula01.msim.vcd
$comment
	File created using the following command:
		vcd file aula01.msim.vcd -direction
$end
$date
	Thu Sep 08 14:29:24 2022
$end
$version
	ModelSim Version 2020.1
$end
$timescale
	1ps
$end

$scope module toplevel_vhd_vec_tst $end
$var wire 1 ! CLOCK_50 $end
$var wire 1 " KEY [3] $end
$var wire 1 # KEY [2] $end
$var wire 1 $ KEY [1] $end
$var wire 1 % KEY [0] $end
$var wire 1 & LEDR [9] $end
$var wire 1 ' LEDR [8] $end
$var wire 1 ( LEDR [7] $end
$var wire 1 ) LEDR [6] $end
$var wire 1 * LEDR [5] $end
$var wire 1 + LEDR [4] $end
$var wire 1 , LEDR [3] $end
$var wire 1 - LEDR [2] $end
$var wire 1 . LEDR [1] $end
$var wire 1 / LEDR [0] $end
$var wire 1 0 PC_OUT [2] $end
$var wire 1 1 PC_OUT [1] $end
$var wire 1 2 PC_OUT [0] $end
$var wire 1 3 SW [9] $end
$var wire 1 4 SW [8] $end
$var wire 1 5 SW [7] $end
$var wire 1 6 SW [6] $end
$var wire 1 7 SW [5] $end
$var wire 1 8 SW [4] $end
$var wire 1 9 SW [3] $end
$var wire 1 : SW [2] $end
$var wire 1 ; SW [1] $end
$var wire 1 < SW [0] $end

$scope module i1 $end
$var wire 1 = gnd $end
$var wire 1 > vcc $end
$var wire 1 ? unknown $end
$var wire 1 @ devoe $end
$var wire 1 A devclrn $end
$var wire 1 B devpor $end
$var wire 1 C ww_devoe $end
$var wire 1 D ww_devclrn $end
$var wire 1 E ww_devpor $end
$var wire 1 F ww_SW [9] $end
$var wire 1 G ww_SW [8] $end
$var wire 1 H ww_SW [7] $end
$var wire 1 I ww_SW [6] $end
$var wire 1 J ww_SW [5] $end
$var wire 1 K ww_SW [4] $end
$var wire 1 L ww_SW [3] $end
$var wire 1 M ww_SW [2] $end
$var wire 1 N ww_SW [1] $end
$var wire 1 O ww_SW [0] $end
$var wire 1 P ww_CLOCK_50 $end
$var wire 1 Q ww_KEY [3] $end
$var wire 1 R ww_KEY [2] $end
$var wire 1 S ww_KEY [1] $end
$var wire 1 T ww_KEY [0] $end
$var wire 1 U ww_PC_OUT [2] $end
$var wire 1 V ww_PC_OUT [1] $end
$var wire 1 W ww_PC_OUT [0] $end
$var wire 1 X ww_LEDR [9] $end
$var wire 1 Y ww_LEDR [8] $end
$var wire 1 Z ww_LEDR [7] $end
$var wire 1 [ ww_LEDR [6] $end
$var wire 1 \ ww_LEDR [5] $end
$var wire 1 ] ww_LEDR [4] $end
$var wire 1 ^ ww_LEDR [3] $end
$var wire 1 _ ww_LEDR [2] $end
$var wire 1 ` ww_LEDR [1] $end
$var wire 1 a ww_LEDR [0] $end
$var wire 1 b \CLOCK_50~input_o\ $end
$var wire 1 c \KEY[1]~input_o\ $end
$var wire 1 d \KEY[2]~input_o\ $end
$var wire 1 e \KEY[3]~input_o\ $end
$var wire 1 f \SW[4]~input_o\ $end
$var wire 1 g \SW[5]~input_o\ $end
$var wire 1 h \~QUARTUS_CREATED_GND~I_combout\ $end
$var wire 1 i \KEY[0]~input_o\ $end
$var wire 1 j \KEY[0]~inputCLKENA0_outclk\ $end
$var wire 1 k \PC|DOUT[0]~2_combout\ $end
$var wire 1 l \PC|DOUT[0]~DUPLICATE_q\ $end
$var wire 1 m \PC|DOUT[1]~0_combout\ $end
$var wire 1 n \PC|DOUT[1]~DUPLICATE_q\ $end
$var wire 1 o \PC|DOUT[2]~1_combout\ $end
$var wire 1 p \PC|DOUT[2]~DUPLICATE_q\ $end
$var wire 1 q \ROM1|memROM~0_combout\ $end
$var wire 1 r \SW[6]~input_o\ $end
$var wire 1 s \ULA1|Add0~18_cout\ $end
$var wire 1 t \ULA1|Add0~1_sumout\ $end
$var wire 1 u \SW[0]~input_o\ $end
$var wire 1 v \DECODER1|saida[2]~0_combout\ $end
$var wire 1 w \SW[7]~input_o\ $end
$var wire 1 x \ULA1|Add0~2\ $end
$var wire 1 y \ULA1|Add0~5_sumout\ $end
$var wire 1 z \SW[1]~input_o\ $end
$var wire 1 { \SW[8]~input_o\ $end
$var wire 1 | \ULA1|Add0~6\ $end
$var wire 1 } \ULA1|Add0~9_sumout\ $end
$var wire 1 ~ \SW[2]~input_o\ $end
$var wire 1 !! \SW[9]~input_o\ $end
$var wire 1 "! \ULA1|Add0~10\ $end
$var wire 1 #! \ULA1|Add0~13_sumout\ $end
$var wire 1 $! \SW[3]~input_o\ $end
$var wire 1 %! \REGA|DOUT\ [3] $end
$var wire 1 &! \REGA|DOUT\ [2] $end
$var wire 1 '! \REGA|DOUT\ [1] $end
$var wire 1 (! \REGA|DOUT\ [0] $end
$var wire 1 )! \PC|DOUT\ [2] $end
$var wire 1 *! \PC|DOUT\ [1] $end
$var wire 1 +! \PC|DOUT\ [0] $end
$var wire 1 ,! \REGA|ALT_INV_DOUT\ [3] $end
$var wire 1 -! \REGA|ALT_INV_DOUT\ [2] $end
$var wire 1 .! \REGA|ALT_INV_DOUT\ [1] $end
$var wire 1 /! \REGA|ALT_INV_DOUT\ [0] $end
$var wire 1 0! \PC|ALT_INV_DOUT\ [2] $end
$var wire 1 1! \PC|ALT_INV_DOUT\ [1] $end
$var wire 1 2! \PC|ALT_INV_DOUT\ [0] $end
$var wire 1 3! \ROM1|ALT_INV_memROM~0_combout\ $end
$var wire 1 4! \PC|ALT_INV_DOUT[2]~DUPLICATE_q\ $end
$var wire 1 5! \PC|ALT_INV_DOUT[1]~DUPLICATE_q\ $end
$var wire 1 6! \PC|ALT_INV_DOUT[0]~DUPLICATE_q\ $end
$var wire 1 7! \ALT_INV_SW[9]~input_o\ $end
$var wire 1 8! \ALT_INV_SW[8]~input_o\ $end
$var wire 1 9! \ALT_INV_SW[7]~input_o\ $end
$var wire 1 :! \ALT_INV_SW[6]~input_o\ $end
$upscope $end
$upscope $end
$enddefinitions $end
#0
$dumpvars
0!
0=
1>
x?
1@
1A
1B
1C
1D
1E
0P
0b
0c
0d
0e
xf
xg
xh
0i
0j
1k
0l
0m
0n
0o
0p
1q
xr
0s
xt
xu
1v
xw
0x
xy
xz
x{
0|
x}
x~
x!!
0"!
x#!
x$!
03!
14!
15!
16!
x7!
x8!
x9!
x:!
0"
0#
0$
0%
00
01
02
1&
1'
0(
1)
0*
0+
0,
0-
0.
0/
xF
xG
xH
xI
xJ
xK
xL
xM
xN
xO
0Q
0R
0S
0T
0U
0V
0W
1X
1Y
0Z
1[
0\
0]
0^
0_
0`
0a
0%!
0&!
0'!
0(!
0)!
0*!
0+!
1,!
1-!
1.!
1/!
10!
11!
12!
x3
x4
x5
x6
x7
x8
x9
x:
x;
x<
$end
#100000
1!
1P
1b
#200000
0!
0P
0b
#300000
1!
1P
1b
#400000
0!
0P
0b
#500000
1!
1P
1b
#600000
0!
0P
0b
#700000
1!
1P
1b
#800000
0!
0P
0b
#900000
1!
1P
1b
